[
    {
        "model": "zeugnisse.fach",
        "pk": 1,
        "fields": {
            "name": "Deutsch",
            "advanced": true,
            "priorit\u00e4t": 1
        }
    },
    {
        "model": "zeugnisse.fach",
        "pk": 2,
        "fields": {
            "name": "Religion",
            "advanced": true,
            "priorit\u00e4t": 0
        }
    },
    {
        "model": "zeugnisse.fach",
        "pk": 3,
        "fields": {
            "name": "Mathematik",
            "advanced": true,
            "priorit\u00e4t": 2
        }
    },
    {
        "model": "zeugnisse.fach",
        "pk": 4,
        "fields": {
            "name": "Franz\u00f6sisch",
            "advanced": true,
            "priorit\u00e4t": 3
        }
    },
    {
        "model": "zeugnisse.fach",
        "pk": 5,
        "fields": {
            "name": "Heimatkunde/Sachkunde",
            "advanced": true,
            "priorit\u00e4t": 5
        }
    },
    {
        "model": "zeugnisse.fach",
        "pk": 6,
        "fields": {
            "name": "Schriftbild",
            "advanced": false,
            "priorit\u00e4t": 6
        }
    },
    {
        "model": "zeugnisse.fach",
        "pk": 7,
        "fields": {
            "name": "Sport",
            "advanced": false,
            "priorit\u00e4t": 7
        }
    },
    {
        "model": "zeugnisse.fach",
        "pk": 8,
        "fields": {
            "name": "Musik",
            "advanced": false,
            "priorit\u00e4t": 8
        }
    },
    {
        "model": "zeugnisse.fach",
        "pk": 9,
        "fields": {
            "name": "Kunst",
            "advanced": false,
            "priorit\u00e4t": 9
        }
    }
]